…
```
## [1] 35.291
```

```r
# Canton: Duran
DUR <- arrange(resultados_alc[which(resultados_alc$CANTON_NOMBRE=='Duran'),], desc(VOTOS)) %>%
  select(-PROVINCIA_CODIGO, -PROVINCIA_NOMBRE, -CANTON_CODIGO)
DUR
```

```
## # A tibble: 21 x 3
##    CANTON_NOMBRE CANDIDATO_CODIGO VOTOS
##    <fct>                    <dbl> <dbl>
##  1 Duran                     3455 47621
##  2 Duran                     9466 33230
##  3 Duran                     4423 30987
##  4 Duran                    16883  7264
##  5 Duran                    11645  4931
##  6 Duran                    20092  2511
##  7 Duran                    32630  2142
##  8 Duran                    20490  1762
##  9 Duran                    21873  1513
## 10 Duran                    35634  1264
## # ... with 11 more rows
```
…
